weathercan
…
---

# Searching by station name

```r
stations_search(name = "Brandon")
```

```
## # A tibble: 15 x 12
##    prov  station_name    station_id climate_id WMO_id TC_id   lat    lon  elev interval start   end
##    <fct> <chr>           <fct>      <fct>      <fct>  <fct> <dbl>  <dbl> <dbl> <chr>    <int> <int>
##  1 MB    BRANDON #1 WIN… 3474       5010498    <NA>   <NA>   49.8 -100.0  396  day       1987  2002
##  2 MB    BRANDON #1 WIN… 3474       5010498    <NA>   <NA>   49.8 -100.0  396  month     1987  2002
##  3 MB    BRANDON A       3471       5010480    71140  YBR    49.9 -100.0  409. day       1941  2012
##  4 MB    BRANDON A       3471       5010480    71140  YBR    49.9 -100.0  409. hour      1958  2012
##  5 MB    BRANDON A       3471       5010480    71140  YBR    49.9 -100.0  409. month     1941  2012
##  6 MB    BRANDON A       50821      5010481    71140  YBR    49.9 -100.0  409. day       2012  2018
##  7 MB    BRANDON A       50821      5010481    71140  YBR    49.9 -100.0  409. hour      2012  2018
##  8 MB    BRANDON CDA     3472       5010485    <NA>   <NA>   49.9 -100.0  363. day       1890  2010
##  9 MB    BRANDON CDA     3472       5010485    <NA>   <NA>   49.9 -100.0  363. month     1890  2007
## 10 MB    BRANDON RCS     49909      5010490    71136  PBO    49.9 -100.0  409. day       2012  2018
## # ... with 5 more rows
```
…
---
# Alternative: Searching with `tidyverse`

> Note here we're using the `stations` data frame directly

```r
library(tidyverse)
stations %>%
  filter(prov == "MB", start > 2000, interval == "day")
```

.narrow[

```
## # A tibble: 40 x 12
##    prov  station_name    station_id climate_id WMO_id TC_id   lat    lon  elev interval start   end
##    <fct> <chr>           <fct>      <fct>      <fct>  <fct> <dbl>  <dbl> <dbl> <chr>    <int> <int>
##  1 MB    BRANDON A       50821      5010481    71140  YBR    49.9 -100.0 409.  day       2012  2018
##  2 MB    BRANDON RCS     49909      5010490    71136  PBO    49.9 -100.0 409.  day       2012  2018
##  3 MB    CFB SHILO CCOC  43343      5012673    <NA>   <NA>   49.8  -99.6 372   day       2004  2005
##  4 MB    CHURCHILL       48969      5060595    71618  YYQ    58.7  -94.1  29.3 day       2010  2018
##  5 MB    CHURCHILL AWOS  47408      5060601    <NA>   <NA>   58.7  -94.1  28.7 day       2008  2010
##  6 MB    CHURCHILL CLIM… 44244      5060608    71696  PYQ    58.7  -94.1  28.5 day       2005  2018
##  7 MB    CROSS LAKE JEN… 54658      5060622    71106  PJP    54.5  -98.0 219.  day       2017  2018
##  8 MB    CYPRESS RIVER … 48128      5010641    71239  POY    49.6  -99.1 374   day       2009  2018
##  9 MB    DAUPHIN         48868      5040689    71036  YDN    51.1 -100.  304.  day       2010  2018
## 10 MB    EMERSON AUTO    48068      5020881    71560  WEX    49    -97.2 242   day       2009  2018
## # ... with 30 more rows
```
…
---
# Understanding the data

#### Flags

.compact[

```r
select(w_month, date, mean_temp, mean_temp_flag) # Pull out some columns
```

```
## # A tibble: 14 x 3
##    date       mean_temp mean_temp_flag
##  * <date>         <dbl> <chr>         
##  1 2017-01-01      -4.4 ""            
##  2 2017-02-01      -4.3 ""            
##  3 2017-03-01      -5.2 ""            
##  4 2017-04-01       7.9 ""            
##  5 2017-05-01      11.8 E             
##  6 2017-06-01      17.5 ""            
##  7 2017-07-01      19.3 ""            
##  8 2017-08-01      18.4 ""            
##  9 2017-09-01      17   ""            
## 10 2017-10-01      12.7 ""            
## # ... with 4 more rows
```
…
---
# Combining with other data

- Adding weather data to other data sets
- Times don't always line up

--

.pull-left[
#### Sediment data (for example)

```
## # A tibble: 1,392 x 2
##   time                amount
##   <dttm>               <dbl>
## 1 2017-09-01 00:05:34   168.
## 2 2017-09-01 00:35:34   157.
## 3 2017-09-01 01:05:34   176.
## 4 2017-09-01 01:35:34   185.
## 5 2017-09-01 02:05:34   163.
## 6 2017-09-01 02:35:34   169.
## 7 2017-09-01 03:05:34   168.
## # ... with 1,385 more rows
```
]

.pull-right[
#### Brandon weather data

```
## # A tibble: 7,992 x 3
##   time                 temp pressure
##   <dttm>              <dbl>    <dbl>
## 1 2017-09-01 00:00:00  20.8     96.2
## 2 2017-09-01 01:00:00  20.8     96.2
## 3 2017-09-01 02:00:00  20       96.1
## 4 2017-09-01 03:00:00  19.4     96.1
## 5 2017-09-01 04:00:00  19.2     96.1
## 6 2017-09-01 05:00:00  18.8     96.0
## 7 2017-09-01 06:00:00  18.9     96.0
## # ... with 7,985 more rows
```
…
--

> Note messages regarding missing data. These are just a 'heads up', not errors

---
# Interpolating

.pull-left-55[
#### Sediment & weather data

```
## # A tibble: 1,392 x 4
##   time                amount  temp pressure
##   <dttm>               <dbl> <dbl>    <dbl>
## 1 2017-09-01 00:05:34   168.  20.8     96.2
## 2 2017-09-01 00:35:34   157.  20.8     96.2
## 3 2017-09-01 01:05:34   176.  20.7     96.1
## 4 2017-09-01 01:35:34   185.  20.3     96.1
## 5 2017-09-01 02:05:34   163.  19.9     96.1
## 6 2017-09-01 02:35:34   169.  19.6     96.1
## 7 2017-09-01 03:05:34   168.  19.4     96.1
## # ... with 1,385 more rows
```
]

.pull-right-45[
#### Original weather data

```
## # A tibble: 7,992 x 3
##   time                 temp pressure
## * <dttm>              <dbl>    <dbl>
## 1 2017-09-01 00:00:00  20.8     96.2
## 2 2017-09-01 01:00:00  20.8     96.2
## 3 2017-09-01 02:00:00  20       96.1
## 4 2017-09-01 03:00:00  19.4     96.1
## 5 2017-09-01 04:00:00  19.2     96.1
## 6 2017-09-01 05:00:00  18.8     96.0
## 7 2017-09-01 06:00:00  18.9     96.0
## # ... with 7,985 more rows
```
…
---
# Getting the most out of `weathercan`

#### 1. Download from multiple stations (spatial)

.compact[

```r
mb <- filter(stations, prov == "MB", start <= "2018", end >= "2018", interval == "hour")
mb
```

```
## # A tibble: 60 x 12
##    prov  station_name    station_id climate_id WMO_id TC_id   lat    lon  elev interval start   end
##    <fct> <chr>           <fct>      <fct>      <fct>  <fct> <dbl>  <dbl> <dbl> <chr>    <int> <int>
##  1 MB    BERENS RIVER A  53321      5030201    <NA>   YBV    52.4  -97.0 222.  hour      2015  2018
##  2 MB    BERENS RIVER A  53318      5030204    <NA>   YBV    52.4  -97.0 222.  hour      2015  2018
##  3 MB    BERENS RIVER CS 3721       5030203    71158  WCF    52.4  -97.0 222.  hour      1985  2018
##  4 MB    BRANDON A       50821      5010481    71140  YBR    49.9 -100.0 409.  hour      2012  2018
##  5 MB    BRANDON RCS     49909      5010490    71136  PBO    49.9 -100.0 409.  hour      2012  2018
##  6 MB    CARBERRY CS     27741      5010547    71170  WZE    49.9  -99.4 384.  hour      1994  2018
##  7 MB    CARMAN U OF M … 26857      502I001    71147  WNK    49.5  -98.0 268.  hour      1995  2018
##  8 MB    CHURCHILL       48969      5060595    71618  YYQ    58.7  -94.1  29.3 hour      2010  2018
##  9 MB    CHURCHILL A     50148      5060605    71618  YYQ    58.7  -94.1  29.3 hour      2012  2018
## 10 MB    CHURCHILL CLIM… 44244      5060608    71696  PYQ    58.7  -94.1  28.5 hour      2005  2018
## # ... with 50 more rows
```
…
