weathercan
…
---
# Basic usage

#### Code

```r
library(weathercan)
w <- weather(station_ids = c(50821, 51097), start = "2017-09-01")
```

--
#### Output

```
## # A tibble: 1,296 x 28
##   station_name station_id   prov   lat    lon                time  hmdx hmdx_flag pressure
## *        <chr>      <dbl> <fctr> <dbl>  <dbl>              <dttm> <dbl>     <chr>    <dbl>
## 1    BRANDON A      50821     MB 49.91 -99.95 2017-09-01 00:00:00    26              96.21
## 2    BRANDON A      50821     MB 49.91 -99.95 2017-09-01 01:00:00    26              96.15
## 3    BRANDON A      50821     MB 49.91 -99.95 2017-09-01 02:00:00    25              96.09
## 4    BRANDON A      50821     MB 49.91 -99.95 2017-09-01 03:00:00    NA              96.07
## 5    BRANDON A      50821     MB 49.91 -99.95 2017-09-01 04:00:00    NA              96.08
## # ... with 1,291 more rows, and 19 more variables
```
…
# Understanding the data

```r
vignette("flags", package = "weathercan")
```

---
# Understanding the data

#### Units and measurements

```
## # A tibble: 1,296 x 6
##    station_id       date  temp temp_dew rel_hum wind_dir
##  *      <dbl>     <date> <dbl>    <dbl>   <dbl>    <dbl>
##  1      50821 2017-09-01  20.8     17.3      80       18
##  2      50821 2017-09-01  20.8     17.2      80       17
##  3      50821 2017-09-01  20.0     16.9      83       17
##  4      50821 2017-09-01  19.4     16.9      85       16
##  5      50821 2017-09-01  19.2     17.2      88       19
##  6      50821 2017-09-01  18.8     17.8      93       17
##  7      50821 2017-09-01  18.9     17.9      94       16
##  8      50821 2017-09-01  18.3     17.7      96       18
##  9      50821 2017-09-01  19.9     17.8      88       20
## 10      50821 2017-09-01  20.6     18.2      86       23
## # ... with 1,286 more rows
```
…
---
# Combining with other data

- Adding weather data (from a single station) to other data sets
- Times don't always line up

--

.pull-left[
#### Sediment data

```
## # A tibble: 1,392 x 2
##                  time   amount
##                <dttm>    <dbl>
## 1 2017-09-01 00:05:34 168.3133
## 2 2017-09-01 00:35:34 156.9122
## 3 2017-09-01 01:05:34 175.6169
## 4 2017-09-01 01:35:34 184.5908
## 5 2017-09-01 02:05:34 163.2017
## 6 2017-09-01 02:35:34 169.2177
## 7 2017-09-01 03:05:34 167.8620
## # ... with 1,385 more rows
```
]

.pull-right[
#### Brandon Weather data

```
## # A tibble: 648 x 3
##                  time  temp pressure
##                <dttm> <dbl>    <dbl>
## 1 2017-09-01 00:00:00  20.8    96.21
## 2 2017-09-01 01:00:00  20.8    96.15
## 3 2017-09-01 02:00:00  20.0    96.09
## 4 2017-09-01 03:00:00  19.4    96.07
## 5 2017-09-01 04:00:00  19.2    96.08
## 6 2017-09-01 05:00:00  18.8    96.05
## 7 2017-09-01 06:00:00  18.9    96.04
## # ... with 641 more rows
```
…
```r
sediment <- add_weather(data = sediment, 
                        weather = w, 
                        col = c("temp", "pressure"))
```

---
# Interpolating

.pull-left-55[
#### Sediment data

```
## # A tibble: 1,392 x 4
##                  time   amount     temp pressure
##                <dttm>    <dbl>    <dbl>    <dbl>
## 1 2017-09-01 00:05:34 168.3133 20.80000 96.20443
## 2 2017-09-01 00:35:34 156.9122 20.80000 96.17443
## 3 2017-09-01 01:05:34 175.6169 20.72578 96.14443
## 4 2017-09-01 01:35:34 184.5908 20.32578 96.11443
## 5 2017-09-01 02:05:34 163.2017 19.94433 96.08814
## 6 2017-09-01 02:35:34 169.2177 19.64433 96.07814
## 7 2017-09-01 03:05:34 167.8620 19.38144 96.07093
## # ... with 1,385 more rows
```
]

.pull-right-45[
#### Weather data

```
## # A tibble: 648 x 3
##                  time  temp pressure
## *              <dttm> <dbl>    <dbl>
## 1 2017-09-01 00:00:00  20.8    96.21
## 2 2017-09-01 01:00:00  20.8    96.15
## 3 2017-09-01 02:00:00  20.0    96.09
## 4 2017-09-01 03:00:00  19.4    96.07
## 5 2017-09-01 04:00:00  19.2    96.08
## 6 2017-09-01 05:00:00  18.8    96.05
## 7 2017-09-01 06:00:00  18.9    96.04
## # ... with 641 more rows
```
…
