weathercan
…
---
# Basic usage

#### Code

```r
library(weathercan)
w <- weather(station_ids = c(50821, 51097), start = "2017-09-01")
```

--
#### Output

```
## # A tibble: 1,248 x 28
##   station_name station_id   prov   lat    lon                time  hmdx hmdx_flag pressure
## *        <chr>      <dbl> <fctr> <dbl>  <dbl>              <dttm> <dbl>     <chr>    <dbl>
## 1    BRANDON A      50821     MB 49.91 -99.95 2017-09-01 00:00:00    26              96.21
## 2    BRANDON A      50821     MB 49.91 -99.95 2017-09-01 01:00:00    26              96.15
## 3    BRANDON A      50821     MB 49.91 -99.95 2017-09-01 02:00:00    25              96.09
## 4    BRANDON A      50821     MB 49.91 -99.95 2017-09-01 03:00:00    NA              96.07
## 5    BRANDON A      50821     MB 49.91 -99.95 2017-09-01 04:00:00    NA              96.08
## # ... with 1,243 more rows, and 19 more variables
```
…
---
# Searching by station name

```r
stations_search(name = "Brandon")
```

--

```
## # A tibble: 15 x 10
##      prov          station_name station_id climate_id   lat    lon  elev interval start   end
##    <fctr>                 <chr>     <fctr>     <fctr> <dbl>  <dbl> <dbl>    <chr> <int> <int>
##  1     MB BRANDON #1 WINTER BAY       3474    5010498 49.83 -99.98 396.0      day  1987  2002
##  2     MB BRANDON #1 WINTER BAY       3474    5010498 49.83 -99.98 396.0    month  1987  2002
##  3     MB             BRANDON A       3471    5010480 49.91 -99.95 409.4      day  1941  2012
##  4     MB             BRANDON A       3471    5010480 49.91 -99.95 409.4     hour  1958  2012
##  5     MB             BRANDON A       3471    5010480 49.91 -99.95 409.4    month  1941  2012
##  6     MB             BRANDON A      50821    5010481 49.91 -99.95 409.3      day  2012  2017
##  7     MB             BRANDON A      50821    5010481 49.91 -99.95 409.3     hour  2012  2017
##  8     MB           BRANDON CDA       3472    5010485 49.87 -99.98 362.7      day  1890  2010
##  9     MB           BRANDON CDA       3472    5010485 49.87 -99.98 362.7    month  1890  2007
## 10     MB           BRANDON RCS      49909    5010490 49.90 -99.95 409.4      day  2012  2017
## # ... with 5 more rows
```
…
---
# Downloading data

```r
w <- weather(station_ids = c(50821, 51097), start = "2017-09-01")
```

--

```
## # A tibble: 1,248 x 28
##    station_name station_id   prov   lat    lon                time  hmdx hmdx_flag pressure
##  *        <chr>      <dbl> <fctr> <dbl>  <dbl>              <dttm> <dbl>     <chr>    <dbl>
##  1    BRANDON A      50821     MB 49.91 -99.95 2017-09-01 00:00:00    26              96.21
##  2    BRANDON A      50821     MB 49.91 -99.95 2017-09-01 01:00:00    26              96.15
##  3    BRANDON A      50821     MB 49.91 -99.95 2017-09-01 02:00:00    25              96.09
##  4    BRANDON A      50821     MB 49.91 -99.95 2017-09-01 03:00:00    NA              96.07
##  5    BRANDON A      50821     MB 49.91 -99.95 2017-09-01 04:00:00    NA              96.08
##  6    BRANDON A      50821     MB 49.91 -99.95 2017-09-01 05:00:00    NA              96.05
##  7    BRANDON A      50821     MB 49.91 -99.95 2017-09-01 06:00:00    NA              96.04
##  8    BRANDON A      50821     MB 49.91 -99.95 2017-09-01 07:00:00    NA              96.03
##  9    BRANDON A      50821     MB 49.91 -99.95 2017-09-01 08:00:00    NA              96.01
## 10    BRANDON A      50821     MB 49.91 -99.95 2017-09-01 09:00:00    27              96.02
## # ... with 1,238 more rows, and 19 more variables
```
…
---
# Combining with other data

- Adding weather data (from a single station) to other data sets
- Times don't always line up

--

.pull-left[
#### Sediment data

```
## # A tibble: 1,392 x 2
##                  time   amount
##                <dttm>    <dbl>
## 1 2017-09-01 00:05:34 168.3133
## 2 2017-09-01 00:35:34 156.9122
## 3 2017-09-01 01:05:34 175.6169
## 4 2017-09-01 01:35:34 184.5908
## 5 2017-09-01 02:05:34 163.2017
## 6 2017-09-01 02:35:34 169.2177
## 7 2017-09-01 03:05:34 167.8620
## # ... with 1,385 more rows
```
]

.pull-right[
#### Brandon Weather data

```
## # A tibble: 624 x 3
##                  time  temp pressure
##                <dttm> <dbl>    <dbl>
## 1 2017-09-01 00:00:00  20.8    96.21
## 2 2017-09-01 01:00:00  20.8    96.15
## 3 2017-09-01 02:00:00  20.0    96.09
## 4 2017-09-01 03:00:00  19.4    96.07
## 5 2017-09-01 04:00:00  19.2    96.08
## 6 2017-09-01 05:00:00  18.8    96.05
## 7 2017-09-01 06:00:00  18.9    96.04
## # ... with 617 more rows
```
…
```r
sediment <- add_weather(data = sediment, 
                        weather = w, 
                        col = c("temp", "pressure"))
```

---
# Interpolating

.pull-left-55[
#### Sediment data

```
## # A tibble: 1,392 x 4
##                  time   amount     temp pressure
##                <dttm>    <dbl>    <dbl>    <dbl>
## 1 2017-09-01 00:05:34 168.3133 20.80000 96.20443
## 2 2017-09-01 00:35:34 156.9122 20.80000 96.17443
## 3 2017-09-01 01:05:34 175.6169 20.72578 96.14443
## 4 2017-09-01 01:35:34 184.5908 20.32578 96.11443
## 5 2017-09-01 02:05:34 163.2017 19.94433 96.08814
## 6 2017-09-01 02:35:34 169.2177 19.64433 96.07814
## 7 2017-09-01 03:05:34 167.8620 19.38144 96.07093
## # ... with 1,385 more rows
```
]

.pull-right-45[
#### Weather data

```
## # A tibble: 648 x 3
##                  time  temp pressure
## *              <dttm> <dbl>    <dbl>
## 1 2017-09-01 00:00:00  20.8    96.21
## 2 2017-09-01 01:00:00  20.8    96.15
## 3 2017-09-01 02:00:00  20.0    96.09
## 4 2017-09-01 03:00:00  19.4    96.07
## 5 2017-09-01 04:00:00  19.2    96.08
## 6 2017-09-01 05:00:00  18.8    96.05
## 7 2017-09-01 06:00:00  18.9    96.04
## # ... with 641 more rows
```
…
